<?xml version="1.0" encoding="UTF-8"?>
<testng-results ignored="0" total="1" passed="1" failed="0" skipped="0">
  <reporter-output>
  </reporter-output>
  <suite started-at="2021-09-02T13:49:01Z" name="Surefire suite" finished-at="2021-09-02T13:49:01Z" duration-ms="21">
    <groups>
    </groups>
    <test started-at="2021-09-02T13:49:01Z" name="Surefire test" finished-at="2021-09-02T13:49:01Z" duration-ms="21">
      <class name="MiniProject.Framework.AppTest">
        <test-method signature="testApp()[pri:0, instance:testApp(MiniProject.Framework.AppTest)]" started-at="2021-09-02T13:49:01Z" name="testApp" finished-at="2021-09-02T13:49:01Z" duration-ms="4" status="PASS">
          <reporter-output>
          </reporter-output>
        </test-method> <!-- testApp -->
      </class> <!-- MiniProject.Framework.AppTest -->
    </test> <!-- Surefire test -->
  </suite> <!-- Surefire suite -->
</testng-results>
